{
"Cars" : [
		{"Model": "Alto","Value": "758620"},
		{"Model": "Zen","Value": "431160"},
		{"Model": "Santro","Value": "515100"},
		{"Model": "Matiz","Value": "293780"},
		{"Model": "Wagan R","Value": "974010"},
		{"Model": "Tamil","Value": "293780"}
		]
	}